z8dyiav	-400.0	200.0
k3lz	-274.0	200.0
k9vx	-203.0	200.0
a6	-123.0	200.0
4	-75.0	200.0
o7yrwcc	-46.0	200.0
t1fiobk	90.0	200.0
h8yl	202.0	200.0
p1qf	275.0	200.0
r4vouxw	-400.0	149.0
a0jsufy	-262.0	149.0
h8f	-143.0	149.0
r1bvvx	-85.0	149.0
d4q	26.0	149.0
a0qsslxanf	93.0	149.0
b0ursceim	-400.0	98.0
k0	-231.0	98.0
q6erv	-185.0	98.0
y1i	-89.0	98.0
a7qj	-35.0	98.0
p1xy	40.0	98.0
l7ukq	122.0	98.0
m0emmtqych	-400.0	47.0
b2d	-183.0	47.0
u2b	-116.0	47.0
c2xdu	-49.0	47.0
w1lhzbl	52.0	47.0
q0v	177.0	47.0
u8iyomt	242.0	47.0
j4	373.0	47.0
f2ux	-400.0	-4.0
k9rjanmhe	-325.0	-4.0
y8umrua	-154.0	-4.0
w5hax	-10.0	-4.0
b8vtplw	99.0	-4.0
r9th	226.0	-4.0
j4nnayp	-400.0	-55.0
x4kyvgx	-270.0	-55.0
v3ri	-137.0	-55.0
c9lzyz	-71.0	-55.0
v4aynhbcv	34.0	-55.0
o2khmlwhzr	207.0	-55.0
h5mmv	-400.0	-106.0
h9c	-277.0	-106.0
n6ei	-212.0	-106.0
j4tifwm	-137.0	-106.0
y3uclxx	-18.0	-106.0
s2ahvaotdf	106.0	-106.0
o5uxn	284.0	-106.0
c2ggtnwh	-400.0	-157.0
a7miz	-243.0	-157.0
k4vevma	-141.0	-157.0
n3ve	6.0	-157.0
f2rhjg	90.0	-157.0
b0had	187.0	-157.0
z7tof	292.0	-157.0
