z8dyiavtk	-400.0	200.0
j9kvxgaumhoy	-247.0	200.0
w1	-18.0	200.0
c2b	36.0	200.0
f3i	101.0	200.0
k1	148.0	200.0
h8ylb	194.0	200.0
f0urvouxw	-400.0	149.0
a0	-233.0	149.0
s9ufyyhfo	-185.0	149.0
r1b	-28.0	149.0
v5xkled	32.0	149.0
q0aqsslxanf	158.0	149.0
b0ursceimq	-400.0	98.0
q6ervry	-212.0	98.0
h8aqjbpxy	-87.0	98.0
l7ukqq	79.0	98.0
m4mtqyc	190.0	98.0
s7	340.0	98.0
d1n	-400.0	47.0
u2bscxdur	-333.0	47.0
l6hzbla	-165.0	47.0
v0li	-46.0	47.0
i4	16.0	47.0
o8m	53.0	47.0
e3jsf	130.0	47.0
x4	213.0	47.0
k9rjanmhek	-400.0	-4.0
y8umruavwha	-212.0	-4.0
y7bvtpl	12.0	-4.0
j6	131.0	-4.0
t1hnejn	168.0	-4.0
y0p	291.0	-4.0
x4kyvgxmp	-400.0	-55.0
v3riz	-219.0	-55.0
l2	-136.0	-55.0
y9	-99.0	-55.0
e9va	-53.0	-55.0
n8hbcvcokh	31.0	-55.0
h6zrvh	223.0	-55.0
j5h	336.0	-55.0
p2wneiujt	-400.0	-106.0
f8wmdy	-244.0	-106.0
c4	-115.0	-106.0
x7ssahvao	-69.0	-106.0
d3f	104.0	-106.0
o5uxnm	162.0	-106.0
c2ggtnwh	-400.0	-157.0
a7	-243.0	-157.0
8	-195.0	-157.0
e9kvevmad	-166.0	-157.0
e5	19.0	-157.0
f2rhj	67.0	-157.0
n6abhadx	145.0	-157.0
t9	305.0	-157.0
