z8dyiavtk	-400.0	25.0
j9kvxgaumhoy	-247.0	25.0
w1	-18.0	25.0
c2b	36.0	25.0
f3i	101.0	25.0
k1	148.0	25.0
h8ylb	194.0	25.0
f0urvouxw	-400.0	25.0
a0	-233.0	25.0
s9ufyyhfo	-185.0	25.0
r1b	-28.0	25.0
v5xkled	32.0	25.0
q0aqsslxanf	158.0	25.0
b0ursceimq	-400.0	25.0
q6ervry	-212.0	25.0
h8aqjbpxy	-87.0	25.0
l7ukqq	79.0	25.0
m4mtqyc	190.0	25.0
s7	340.0	25.0
d1n	-400.0	25.0
u2bscxdur	-333.0	25.0
l6hzbla	-165.0	25.0
v0li	-46.0	25.0
i4	16.0	25.0
o8m	53.0	25.0
e3jsf	130.0	25.0
x4	213.0	25.0
k9rjanmhek	-400.0	25.0
y8umruavwha	-212.0	25.0
y7bvtpl	12.0	25.0
j6	131.0	25.0
t1hnejn	168.0	25.0
y0p	291.0	25.0
x4kyvgxmp	-400.0	25.0
v3riz	-219.0	25.0
l2	-136.0	25.0
y9	-99.0	25.0
e9va	-53.0	25.0
n8hbcvcokh	31.0	25.0
h6zrvh	223.0	25.0
j5h	336.0	25.0
p2wneiujt	-400.0	25.0
f8wmdy	-244.0	25.0
c4	-115.0	25.0
x7ssahvao	-69.0	25.0
d3f	104.0	25.0
o5uxnm	162.0	25.0
c2ggtnwh	-400.0	25.0
a7	-243.0	25.0
8	-195.0	25.0
e9kvevmad	-166.0	25.0
e5	19.0	25.0
f2rhj	67.0	25.0
n6abhadx	145.0	25.0
t9	305.0	25.0
w5ml	-400.0	25.0
p1vdgopyo	-309.0	25.0
w5p	-132.0	25.0
q7cb	-59.0	25.0
s6svmxreh	25.0	25.0
d9rkctbvu	201.0	25.0
o5smerd	-400.0	25.0
m2rkevitb	-256.0	25.0
g2fxrl	-96.0	25.0
k3ztv	-1.0	25.0
h0c	89.0	25.0
q6baewofgkezx	154.0	25.0
u0skyzmm	-400.0	25.0
l8	-226.0	25.0
p2yyeya	-189.0	25.0
x4k	-52.0	25.0
f9ojwugm	11.0	25.0
a3wtbeloo	169.0	25.0
v1rizdambuilv	-400.0	25.0
