z8dyiavtk	-553.0	25.0
j9kvxgaumhoy	-400.0	25.0
w1	-171.0	25.0
c2b	-117.0	25.0
f3i	-52.0	25.0
k1	-5.0	25.0
h8ylb	41.0	25.0
f0urvouxw	133.0	25.0
a0	300.0	25.0
s9ufyyhfo	348.0	25.0
r1b	505.0	25.0
v5xkled	-553.0	25.0
q0aqsslxanf	-427.0	25.0
b0ursceimq	-234.0	25.0
q6ervry	-46.0	25.0
h8aqjbpxy	79.0	25.0
l7ukqq	245.0	25.0
m4mtqyc	356.0	25.0
s7	506.0	25.0
d1n	-553.0	25.0
u2bscxdur	-486.0	25.0
l6hzbla	-318.0	25.0
v0li	-199.0	25.0
i4	-137.0	25.0
o8m	-100.0	25.0
e3jsf	-23.0	25.0
x4	60.0	25.0
k9rjanmhek	106.0	25.0
y8umruavwha	294.0	25.0
y7bvtpl	-553.0	25.0
j6	-434.0	25.0
t1hnejn	-397.0	25.0
y0p	-274.0	25.0
x4kyvgxmp	-209.0	25.0
v3riz	-28.0	25.0
l2	55.0	25.0
y9	92.0	25.0
e9va	138.0	25.0
n8hbcvcokh	222.0	25.0
h6zrvh	414.0	25.0
j5h	-553.0	25.0
p2wneiujt	-497.0	25.0
f8wmdy	-341.0	25.0
c4	-212.0	25.0
x7ssahvao	-166.0	25.0
d3f	7.0	25.0
o5uxnm	65.0	25.0
c2ggtnwh	197.0	25.0
a7	354.0	25.0
8	402.0	25.0
e9kvevmad	-553.0	25.0
e5	-368.0	25.0
f2rhj	-320.0	25.0
n6abhadx	-242.0	25.0
t9	-82.0	25.0
w5ml	-43.0	25.0
p1vdgopyo	48.0	25.0
w5p	225.0	25.0
q7cb	298.0	25.0
s6svmxreh	382.0	25.0
d9rkctbvu	-553.0	25.0
o5smerd	-394.0	25.0
m2rkevitb	-250.0	25.0
g2fxrl	-90.0	25.0
k3ztv	5.0	25.0
h0c	95.0	25.0
q6baewofgkezx	160.0	25.0
u0skyzmm	-553.0	25.0
l8	-379.0	25.0
p2yyeya	-342.0	25.0
x4k	-205.0	25.0
f9ojwugm	-142.0	25.0
a3wtbeloo	16.0	25.0
v1rizdambuilv	183.0	25.0
