z8dyiavtk	-553.0	25.0
j9kvxgaumhoy	-266.0	25.0
w1	165.0	25.0
c2b	266.0	25.0
f3i	388.0	25.0
k1	475.0	25.0
h8ylb	-553.0	25.0
f0urvouxw	-380.0	25.0
a0	-67.0	25.0
s9ufyyhfo	23.0	25.0
r1b	317.0	25.0
v5xkled	-553.0	25.0
q0aqsslxanf	-316.0	25.0
b0ursceimq	47.0	25.0
q6ervry	-553.0	25.0
h8aqjbpxy	-319.0	25.0
l7ukqq	-6.0	25.0
m4mtqyc	203.0	25.0
s7	483.0	25.0
d1n	-553.0	25.0
u2bscxdur	-427.0	25.0
l6hzbla	-111.0	25.0
v0li	113.0	25.0
i4	229.0	25.0
o8m	298.0	25.0
e3jsf	-553.0	25.0
x4	-398.0	25.0
k9rjanmhek	-312.0	25.0
y8umruavwha	41.0	25.0
y7bvtpl	-553.0	25.0
j6	-330.0	25.0
t1hnejn	-261.0	25.0
y0p	-30.0	25.0
x4kyvgxmp	92.0	25.0
v3riz	432.0	25.0
l2	-553.0	25.0
y9	-484.0	25.0
e9va	-398.0	25.0
n8hbcvcokh	-240.0	25.0
h6zrvh	122.0	25.0
j5h	334.0	25.0
p2wneiujt	-553.0	25.0
f8wmdy	-260.0	25.0
c4	-19.0	25.0
x7ssahvao	67.0	25.0
d3f	393.0	25.0
o5uxnm	-553.0	25.0
c2ggtnwh	-305.0	25.0
a7	-10.0	25.0
8	80.0	25.0
e9kvevmad	134.0	25.0
e5	482.0	25.0
f2rhj	-553.0	25.0
n6abhadx	-408.0	25.0
t9	-106.0	25.0
w5ml	-34.0	25.0
p1vdgopyo	136.0	25.0
w5p	-553.0	25.0
q7cb	-416.0	25.0
s6svmxreh	-258.0	25.0
d9rkctbvu	72.0	25.0
o5smerd	-553.0	25.0
m2rkevitb	-283.0	25.0
g2fxrl	16.0	25.0
k3ztv	193.0	25.0
h0c	361.0	25.0
q6baewofgkezx	-553.0	25.0
u0skyzmm	-86.0	25.0
l8	240.0	25.0
p2yyeya	309.0	25.0
x4k	-553.0	25.0
f9ojwugm	-435.0	25.0
a3wtbeloo	-139.0	25.0
v1rizdambuilv	175.0	25.0
