resp,left,target,right,size,ecc,corr
u,n,u,a,30,-100,1
a,c,d,w,30,-150,0
n,f,n,z,30,0,1
q,d,q,w,30,200,1
e,f,e,l,30,100,1
b,c,l,b,30,200,0
v,n,v,d,30,150,1
a,n,c,d,30,200,0
q,p,c,r,30,150,0
n,c,n,v,30,-100,1
l,u,l,d,30,50,1
k,w,l,k,30,-200,0
j,x,j,l,30,150,1
p,f,q,a,30,200,0
y,o,y,a,30,-200,1
v,j,v,i,30,100,1
m,f,m,m,30,200,1
v,v,v,o,30,100,1
n,q,n,t,30,-50,1
n,n,p,f,30,-150,0
h,r,h,v,30,150,1
a,u,a,m,30,150,1
a,i,u,r,30,200,0
q,w,d,r,30,-200,0
h,y,h,a,30,-200,1
r,r,r,r,30,0,1
z,n,z,t,30,-200,1
d,w,d,d,30,-200,1
y,p,y,q,30,-150,1
v,c,v,m,30,100,1
y,b,d,y,30,-150,0
f,v,v,t,30,-150,0
c,f,c,w,30,100,1
x,x,n,c,30,-50,0
c,g,o,h,30,-100,0
c,l,c,r,30,50,1
y,s,n,y,30,-150,0
y,k,y,r,30,200,1
a,r,a,h,30,-200,1
d,f,d,d,30,-100,1
l,f,l,m,30,-50,1
i,m,o,z,30,-50,0
n,e,r,w,30,-50,0
q,d,q,q,30,-200,1
r,i,u,f,30,150,0
f,l,f,f,30,0,1
b,l,b,o,30,200,1
y,b,y,b,30,100,1
y,p,k,y,30,0,0
s,r,s,p,30,-100,1
d,x,a,c,30,-150,0
w,f,w,w,30,200,1
j,q,j,l,30,-100,1
w,y,w,b,30,150,1
g,w,g,r,30,-150,1
b,n,b,o,30,-50,1
h,z,h,z,30,0,1
y,w,j,y,30,200,0
m,w,m,l,30,150,1
d,y,d,y,30,50,1
n,e,n,q,30,0,1
k,s,k,c,30,-50,1
x,o,e,x,30,-100,0
b,z,l,b,30,200,0
s,g,s,w,30,-50,1
l,s,l,m,30,0,1
o,q,o,n,30,50,1
b,k,b,b,30,200,1
v,z,v,l,30,100,1
q,s,p,n,30,-200,0
r,r,j,j,30,200,0
f,n,f,m,30,100,1
f,d,s,f,30,-150,0
i,j,i,f,30,200,1
a,s,a,j,30,200,1
h,r,h,w,30,0,1
j,q,j,v,30,50,1
t,z,t,n,30,0,1
s,g,s,v,30,-200,1
f,s,u,f,30,150,0
c,s,c,f,30,50,1
w,t,w,z,30,50,1
w,b,w,y,30,0,1
y,a,y,b,30,0,1
m,j,m,f,30,150,1
d,k,t,q,30,-100,0
p,e,p,a,30,100,1
a,u,a,m,30,-150,1
l,l,b,c,30,-150,0
c,y,c,w,30,150,1
q,n,e,g,30,-150,0
c,u,c,o,30,50,1
w,s,c,n,30,-200,0
j,m,j,o,30,0,1
s,u,s,s,30,-50,1
s,b,s,b,30,100,1
f,q,f,u,30,150,1
n,e,n,y,30,100,1
f,o,j,v,30,-150,0
r,e,r,x,30,150,1
g,m,g,j,30,150,1
n,l,n,l,30,0,1
f,d,f,u,30,200,1
c,i,o,k,30,-200,0
a,u,a,w,30,50,1
q,q,q,f,30,-50,1
a,f,a,k,30,100,1
s,s,a,z,30,-200,0
j,r,j,a,30,0,1
u,h,u,m,30,50,1
z,z,n,i,30,-200,0
g,i,g,a,30,-50,1
u,q,i,x,30,100,0
s,s,e,d,30,-100,0
d,k,d,d,30,-50,1
e,e,e,x,30,-100,1
f,x,j,r,30,-150,0
r,t,r,z,30,0,1
d,e,d,j,30,100,1
a,h,z,q,30,-100,0
m,n,m,m,30,50,1
b,b,b,g,30,100,1
b,n,j,p,30,-150,0
b,u,d,b,30,-50,0
l,i,h,m,30,-100,0
h,v,h,z,30,0,1
n,m,n,o,30,50,1
u,k,u,c,30,150,1
h,k,h,r,30,-50,1
n,m,c,m,30,-200,0
v,k,v,a,30,100,1
t,c,t,q,30,0,1
v,h,x,y,30,200,0
r,a,r,n,30,50,1
f,s,d,u,30,-100,0
s,j,p,y,30,150,0
r,k,p,z,30,-200,0
s,y,s,r,30,-100,1
m,l,m,x,30,-100,1
p,p,p,o,30,-100,1
z,z,z,a,30,150,1
f,t,r,c,30,200,0
d,d,c,p,30,-50,0
m,w,m,w,30,-100,1
u,a,u,p,30,-100,1
b,x,p,k,30,-150,0
b,v,e,h,30,-100,0
z,x,z,s,30,-50,1
l,i,l,w,30,50,1
k,e,x,t,30,-200,0
e,m,e,j,30,-100,1
v,r,v,y,30,0,1
g,x,g,t,30,-150,1
e,m,p,k,30,-200,0
v,n,v,m,30,-50,1
r,e,r,z,30,-50,1
n,w,n,k,30,50,1
b,q,b,c,30,150,1
y,q,y,x,30,200,1
u,d,u,a,30,100,1
p,h,p,l,30,50,1
j,k,j,n,30,0,1
f,h,f,v,30,-150,1
f,w,k,f,30,-150,0
e,z,e,p,30,50,1
n,k,w,n,30,-50,0
e,a,e,t,30,-50,1
h,n,h,j,30,50,1
z,c,x,j,30,-200,0
q,r,g,q,30,100,0
h,x,h,r,30,-200,1
p,f,p,u,30,200,1
z,f,z,p,30,100,1
f,q,d,n,30,150,0
r,z,r,p,30,150,1
u,x,u,s,30,100,1
q,v,q,c,30,0,1
l,c,l,x,30,50,1
t,j,t,h,30,50,1
k,t,l,y,30,-150,0
