resp,left,target,right,size,ecc,corr
n,p,y,k,30,-200,0
h,n,w,g,30,-200,0
i,x,t,w,30,150,0
s,e,a,e,30,-150,0
c,x,v,e,30,-100,0
d,y,d,l,30,150,1
q,q,e,u,30,-200,0
k,m,k,m,30,-100,1
p,j,q,g,30,-200,0
x,y,x,e,30,100,1
j,e,j,r,30,50,1
c,i,c,n,30,100,1
y,j,y,n,30,200,1
s,s,s,m,30,0,1
j,i,h,j,30,-150,0
n,k,n,o,30,-100,1
p,p,b,n,30,100,0
u,j,u,a,30,-100,1
a,o,a,c,30,-100,1
i,i,z,o,30,200,0
h,w,h,r,30,200,1
a,p,a,j,30,-50,1
z,a,z,m,30,-150,1
x,k,x,t,30,-150,1
j,f,j,t,30,0,1
k,j,g,k,30,100,0
p,t,p,m,30,200,1
n,s,n,n,30,50,1
q,q,z,y,30,150,0
u,s,u,r,30,100,1
t,e,u,a,30,100,0
b,g,b,q,30,0,1
g,z,g,q,30,50,1
k,n,x,y,30,-150,0
y,e,y,a,30,200,1
a,a,b,l,30,-50,0
h,h,b,q,30,150,0
a,a,a,h,30,0,1
y,b,y,z,30,150,1
w,y,w,a,30,150,1
t,m,t,z,30,50,1
h,o,d,h,30,200,0
s,f,s,s,30,-100,1
k,l,j,x,30,-150,0
u,u,w,n,30,200,0
y,j,c,h,30,200,0
w,z,w,j,30,100,1
k,s,a,k,30,-100,0
d,i,d,u,30,-50,1
d,d,z,d,30,100,0
r,k,r,r,30,0,1
p,i,j,q,30,-150,0
h,s,a,h,30,100,0
a,p,r,v,30,150,0
a,c,a,z,30,150,1
c,e,e,f,30,-50,0
u,x,u,b,30,50,1
y,r,v,o,30,-200,0
d,k,d,p,30,50,1
e,p,e,w,30,0,1
k,s,k,f,30,50,1
h,r,d,m,30,-100,0
e,e,d,r,30,-200,0
f,f,x,m,30,-200,0
f,a,f,x,30,-50,1
u,k,t,w,30,-150,0
z,r,z,d,30,50,1
i,f,i,d,30,50,1
y,x,r,g,30,150,0
n,i,n,a,30,150,1
u,a,q,x,30,200,0
a,k,e,v,30,200,0
u,u,j,o,30,-100,0
w,w,x,o,30,50,0
e,z,e,k,30,-100,1
a,y,a,o,30,100,1
k,l,n,r,30,-150,0
n,i,n,t,30,0,1
g,u,k,q,30,200,0
f,m,f,w,30,0,1
f,f,f,v,30,50,1
e,q,k,c,30,-150,0
d,y,x,d,30,-50,0
i,r,i,h,30,150,1
i,j,u,j,30,200,0
j,w,j,r,30,50,1
e,f,s,n,30,-200,0
m,m,v,u,30,-200,0
d,y,d,g,30,-150,1
e,d,n,x,30,-100,0
a,t,a,y,30,-100,1
t,z,t,h,30,-50,1
b,m,b,u,30,50,1
w,d,z,v,30,200,0
a,i,o,s,30,-150,0
s,y,s,u,30,100,1
b,g,b,s,30,0,1
n,k,n,w,30,0,1
w,e,u,a,30,-200,0
v,z,v,j,30,150,1
p,i,p,j,30,200,1
w,e,w,r,30,-50,1
i,p,l,j,30,100,0
z,u,z,d,30,150,1
e,s,e,k,30,50,1
f,g,f,u,30,0,1
i,l,f,s,30,200,0
o,b,o,v,30,50,1
p,y,q,r,30,-50,0
p,h,p,j,30,50,1
e,d,e,n,30,200,1
s,q,s,j,30,-100,1
d,q,n,r,30,-100,0
e,m,q,e,30,-50,0
s,l,s,a,30,50,1
l,d,f,l,30,-200,0
l,q,l,y,30,50,1
n,i,h,t,30,150,0
t,t,d,y,30,-200,0
s,a,e,p,30,150,0
p,t,q,a,30,-50,0
d,d,b,k,30,100,0
p,n,p,c,30,-200,1
z,c,z,k,30,100,1
m,t,m,s,30,100,1
n,z,n,s,30,-50,1
n,u,m,j,30,150,0
p,e,q,l,30,-150,0
y,y,x,d,30,200,0
k,w,k,g,30,0,1
r,p,r,f,30,150,1
n,m,a,a,30,-200,0
a,g,u,f,30,-100,0
g,k,g,x,30,150,1
i,a,j,m,30,-200,0
u,o,u,v,30,0,1
k,k,j,h,30,-150,0
a,y,a,v,30,-100,1
p,j,p,z,30,0,1
t,v,t,z,30,-50,1
h,h,r,k,30,-50,0
p,p,p,z,30,0,1
k,k,h,m,30,-200,0
h,m,s,m,30,-150,0
z,c,z,a,30,-50,1
m,o,c,m,30,-50,0
q,s,z,q,30,100,0
u,g,d,u,30,200,0
i,k,i,i,30,0,1
p,i,p,r,30,-200,1
r,s,r,l,30,150,1
b,j,d,g,30,-100,0
b,y,p,h,30,-150,0
o,t,o,k,30,-50,1
s,p,s,e,30,-200,1
e,e,p,n,30,-150,0
l,f,l,k,30,0,1
e,n,o,e,30,-200,0
w,w,r,g,30,-200,0
v,v,a,z,30,-150,0
w,t,w,h,30,100,1
u,k,y,u,30,-150,0
f,f,x,r,30,200,0
d,r,q,d,30,-50,0
m,x,m,s,30,0,1
m,d,m,p,30,150,1
n,s,n,o,30,100,1
t,t,k,d,30,50,0
z,z,j,y,30,-100,0
q,s,q,c,30,100,1
b,j,o,b,30,-50,0
a,d,a,i,30,50,1
i,z,j,i,30,-100,0
n,m,g,s,30,200,0
c,t,c,r,30,100,1
f,l,f,j,30,-50,1
w,k,w,d,30,0,1
e,d,e,z,30,-100,1
n,x,n,w,30,0,1
b,b,v,d,30,-150,0
