resp,left,target,right,size,ecc,corr
x,h,x,p,30,-150,1
u,g,u,i,30,-200,1
q,q,o,w,30,-150,0
n,u,m,j,30,-200,0
v,z,v,e,30,100,1
r,s,r,n,30,0,1
i,a,i,u,30,200,1
i,a,i,j,30,-150,1
n,s,n,b,30,-50,1
d,e,d,g,30,-100,1
b,l,d,a,30,200,0
f,g,f,i,30,200,1
o,g,o,i,30,50,1
x,u,x,d,30,150,1
k,u,k,n,30,-200,1
q,x,n,v,30,200,0
r,r,j,a,30,150,0
s,c,s,i,30,-100,1
f,f,i,f,30,-150,0
m,i,m,e,30,-100,1
d,f,c,d,30,-150,0
x,i,w,x,30,-200,0
a,n,a,n,30,-50,1
q,x,q,b,30,0,1
j,i,h,j,30,-150,0
o,i,o,z,30,-100,1
e,j,e,e,30,-50,1
p,y,p,u,30,-50,1
j,z,y,a,30,-150,0
r,x,n,f,30,200,0
n,f,i,n,30,200,0
s,t,s,h,30,-50,1
b,t,b,l,30,-200,1
a,r,a,b,30,150,1
i,e,i,b,30,0,1
m,i,m,d,30,50,1
e,v,a,l,30,-200,0
b,w,o,g,30,-150,0
b,n,b,b,30,200,1
c,d,c,m,30,0,1
s,s,s,w,30,0,1
s,y,s,i,30,-50,1
b,x,b,o,30,-100,1
i,r,i,u,30,0,1
p,p,p,m,30,-50,1
s,q,a,p,30,-200,0
o,l,o,y,30,200,1
m,f,m,a,30,0,1
x,f,x,x,30,150,1
e,y,e,h,30,150,1
j,z,j,k,30,-50,1
z,z,q,q,30,-200,0
t,f,t,i,30,0,1
a,s,a,j,30,50,1
b,b,k,v,30,-100,0
w,h,w,y,30,100,1
y,m,y,x,30,50,1
j,a,i,s,30,-150,0
s,b,s,z,30,100,1
v,v,v,k,30,100,1
m,f,n,u,30,-200,0
b,l,b,e,30,-150,1
h,f,h,a,30,-150,1
a,v,a,v,30,200,1
c,c,c,e,30,100,1
z,h,z,a,30,-200,1
z,r,z,t,30,200,1
x,r,x,d,30,50,1
r,a,r,n,30,50,1
q,z,q,a,30,100,1
p,m,p,v,30,-50,1
s,i,s,r,30,-150,1
v,v,i,c,30,200,0
e,w,e,o,30,-50,1
a,p,a,o,30,-100,1
d,b,d,l,30,-100,1
b,n,t,a,30,200,0
f,c,f,j,30,0,1
h,e,m,z,30,200,0
e,w,e,u,30,0,1
y,d,y,p,30,150,1
p,s,p,p,30,150,1
q,q,q,g,30,-50,1
h,r,h,x,30,0,1
f,c,f,l,30,0,1
y,b,y,p,30,-100,1
g,x,g,n,30,100,1
a,f,b,o,30,100,0
t,l,d,t,30,200,0
w,f,w,e,30,0,1
f,l,f,k,30,150,1
l,y,l,y,30,50,1
h,m,h,f,30,150,1
w,p,w,r,30,-100,1
x,a,x,u,30,-100,1
n,w,n,b,30,0,1
h,h,t,c,30,150,0
h,z,u,m,30,150,0
p,k,p,n,30,100,1
y,y,c,j,30,-100,0
x,x,t,m,30,-200,0
s,s,l,j,30,-100,0
g,m,g,y,30,50,1
d,l,d,v,30,-100,1
j,j,j,t,30,-150,1
j,q,j,s,30,-150,1
s,v,s,g,30,-50,1
k,k,k,t,30,50,1
k,w,k,v,30,-100,1
z,t,u,z,30,-200,0
t,y,h,q,30,-150,0
k,p,k,a,30,-150,1
t,g,t,o,30,150,1
v,u,v,q,30,0,1
g,y,g,h,30,50,1
q,q,q,j,30,50,1
f,r,e,h,30,-200,0
z,w,z,v,30,150,1
t,a,t,r,30,-150,1
g,z,g,n,30,50,1
j,z,j,e,30,-50,1
z,w,i,g,30,100,0
g,v,v,j,30,50,0
m,a,m,x,30,-50,1
t,b,r,v,30,-200,0
b,u,y,l,30,-150,0
a,a,o,a,30,100,0
i,t,i,y,30,50,1
x,k,x,p,30,-50,1
m,m,n,s,30,-200,0
f,q,f,t,30,50,1
m,l,m,u,30,50,1
r,m,n,q,30,-200,0
d,q,d,j,30,0,1
v,y,v,s,30,100,1
l,g,l,j,30,100,1
n,j,m,i,30,-50,0
e,f,e,t,30,-200,1
j,q,j,v,30,0,1
t,t,r,o,30,200,0
y,j,x,y,30,-200,0
e,l,a,x,30,200,0
z,i,z,i,30,150,1
p,a,p,e,30,-50,1
d,n,d,r,30,50,1
d,a,a,x,30,150,0
n,b,o,b,30,150,0
m,m,m,s,30,0,1
r,k,n,g,30,150,0
c,u,o,c,30,-200,0
l,y,l,h,30,50,1
g,j,y,z,30,100,0
z,c,z,h,30,200,1
n,q,n,j,30,-100,1
y,m,y,m,30,200,1
i,t,i,m,30,0,1
t,y,y,f,30,-100,0
v,a,v,n,30,200,1
w,w,w,a,30,-150,1
c,n,c,m,30,0,1
f,m,f,y,30,150,1
m,n,m,q,30,-50,1
q,g,o,p,30,100,0
j,g,d,j,30,100,0
l,i,i,k,30,-100,0
d,j,d,l,30,100,1
a,l,a,o,30,100,1
b,b,k,b,30,-100,0
m,b,m,i,30,-50,1
g,b,g,f,30,50,1
v,u,v,q,30,100,1
v,r,t,w,30,100,0
z,z,r,r,30,-150,0
u,y,u,m,30,50,1
y,u,y,e,30,-50,1
b,y,b,q,30,150,1
b,w,a,v,30,-100,0
g,i,j,g,30,150,0
y,u,y,t,30,200,1
v,y,m,w,30,-200,0
