resp,left,target,right,size,ecc,corr
x,k,x,j,30,100,1
k,s,j,i,30,-100,0
s,l,j,o,30,150,0
k,k,p,x,30,-50,0
x,l,c,p,30,100,0
v,m,d,a,30,50,0
f,u,n,p,30,50,0
p,q,e,g,30,150,0
p,m,e,l,30,100,0
s,u,w,l,30,150,0
k,k,j,c,30,200,0
l,x,o,a,30,150,0
l,e,c,q,30,0,0
s,n,r,q,30,-50,0
l,b,w,k,30,0,0
l,k,h,r,30,100,0
a,z,t,s,30,-50,0
l,d,h,m,30,100,0
s,p,z,e,30,150,0
a,a,h,m,30,-150,0
a,a,m,t,30,0,0
k,s,g,o,30,0,0
n,x,x,x,30,50,0
k,v,j,z,30,100,0
n,a,y,p,30,50,0
z,u,d,i,30,150,0
n,j,h,q,30,-150,0
m,d,e,j,30,-200,0
z,b,d,w,30,-100,0
x,h,s,g,30,-200,0
z,j,l,d,30,-200,0
n,u,n,g,30,0,1
m,f,e,f,30,50,0
z,p,v,g,30,-200,0
n,s,l,i,30,200,0
comma,e,a,p,30,-50,0
c,a,n,p,30,-150,0
x,q,s,w,30,-200,0
z,u,m,m,30,-50,0
m,c,n,n,30,200,0
z,z,f,h,30,-200,0
c,s,p,x,30,-100,0
n,e,i,v,30,-200,0
comma,r,o,y,30,-50,0
n,h,z,x,30,-200,0
comma,g,i,c,30,50,0
n,r,a,t,30,100,0
comma,v,f,w,30,-100,0
n,x,g,h,30,100,0
comma,c,g,s,30,-150,0
n,b,k,h,30,50,0
comma,e,u,h,30,200,0
n,l,i,c,30,200,0
a,i,k,c,30,0,0
n,p,a,z,30,100,0
a,t,z,x,30,200,0
s,c,d,q,30,-100,0
a,u,c,x,30,0,0
n,p,x,v,30,-200,0
comma,m,g,d,30,-50,0
n,x,h,d,30,0,0
m,t,g,z,30,100,0
n,r,i,j,30,200,0
comma,k,g,t,30,-100,0
n,g,k,n,30,-50,0
comma,v,d,a,30,150,0
comma,u,b,a,30,-150,0
a,j,o,i,30,-200,0
d,l,v,q,30,-150,0
s,a,g,y,30,-150,0
m,h,g,g,30,200,0
d,g,x,r,30,0,0
m,u,h,n,30,-100,0
k,s,z,d,30,50,0
k,x,s,f,30,0,0
k,z,p,i,30,-50,0
k,z,q,s,30,-50,0
k,r,d,q,30,200,0
k,u,h,d,30,50,0
k,y,q,w,30,50,0
k,f,s,c,30,-100,0
k,z,g,g,30,-150,0
m,z,w,z,30,-150,0
z,q,d,n,30,150,0
c,y,c,l,30,-100,1
x,q,o,p,30,200,0
comma,o,w,h,30,-150,0
n,v,u,e,30,150,0
comma,u,p,q,30,150,0
n,v,w,g,30,-100,0
